<?xml version="1.0" encoding="iso-8859-1"?>
<!-- Generator: Adobe Illustrator 22.0.1, SVG Export Plug-In . SVG Version: 6.00 Build 0)  -->
<svg version="1.1" id="Layer_1" xmlns="http://www.w3.org/2000/svg" xmlns:xlink="http://www.w3.org/1999/xlink" x="0px" y="0px"
	 viewBox="0 0 409.6 326.985" style="enable-background:new 0 0 409.6 326.985;" xml:space="preserve" fill="#00fbff">
<g id="_x36_EPZUY.tif">
	<g>
		<g>
			<path d="M0,264.214c0-80,0-160,0-240c0.402-1.664,0.795-3.33,1.206-4.992C3.688,9.199,13.515-0.099,28.219,0.001
				c42.254,0.288,84.512,0.092,126.768,0.104c26.526,0.008,53.054-0.078,79.579,0.127c12.303,0.095,23.177,10.745,23.837,23.019
				c0.311,5.782,0.053,11.594,0.053,17.709c2.477,0,3.921,0,5.365,0c20.262,0,40.525,0.159,60.784-0.075
				c8.629-0.099,15.448,3.002,21.133,9.296c17.777,19.684,35.547,39.375,53.471,58.924c4.736,5.166,9.138,10.356,10.391,17.508
				c0,53.067,0,106.133,0,159.2c-8.931,0.018-17.862,0.042-26.793,0.051c-8.088,0.009-8.087,0.002-10.275,7.642
				c-0.11,0.383-0.279,0.748-0.41,1.125c-7.321,21.058-26.557,33.806-49.767,31.861c-19.542-1.638-36.889-15.554-41.428-36.866
				c-0.696-3.267-2.097-3.823-5.055-3.818c-47.59,0.082-95.181,0.058-142.771,0.058c-1.315,0-2.631,0-4.069,0
				c-0.409,1.685-0.77,3.087-1.089,4.498c-5.294,23.392-28.986,39.701-52.489,36.128c-20.019-3.043-34.952-16.588-39.701-36.433
				c-0.821-3.432-2.199-4.443-5.572-4.267c-5.563,0.291-11.144,0.393-16.4-2.244C5.727,279.509,1.672,272.741,0,264.214z
				 M245.556,190.48c0-1.266,0-2.179,0-3.092c0-53.183,0.002-106.366-0.015-159.548c0-1.322-0.062-2.681-0.364-3.959
				c-1.696-7.186-6.763-10.636-15.627-10.638c-66.645-0.01-133.29-0.006-199.936-0.005c-0.666,0-1.334-0.018-1.999,0.01
				c-9.409,0.403-14.01,5.209-14.013,14.662c-0.006,21.06-0.002,42.12-0.002,63.18c0,1.393,0,2.787,0,4.312
				c22.246,0,43.836-0.008,65.425,0.016c1.585,0.002,3.232-0.002,4.743,0.399c3.324,0.882,4.641,3.355,4.474,6.648
				c-0.158,3.117-1.52,5.376-4.847,5.887c-1.7,0.261-3.427,0.483-5.143,0.486c-19.994,0.033-39.987,0.021-59.981,0.021
				c-1.426,0-2.852,0-4.343,0c0,7.114,0,13.797,0,20.735c1.911,0,3.495,0,5.079,0c28.791,0,57.581-0.002,86.372,0.007
				c1.597,0.001,3.203,0.013,4.79,0.172c3.043,0.304,4.742,2.04,5.219,5.072c0.782,4.971-1.793,7.843-7.338,7.849
				c-29.857,0.031-59.714,0.016-89.571,0.017c-1.543,0-3.086,0-4.668,0c0,16.245,0,31.915,0,47.77
				C91.012,190.48,168.001,190.48,245.556,190.48z M259.107,272.654c5.789,0,11.242-0.192,16.672,0.071
				c3.292,0.16,4.461-0.864,5.188-4.203c5.975-27.447,35.222-43.472,61.761-34.024c16.634,5.921,26.671,17.711,30.87,34.728
				c0.301,1.218,1.287,3.203,2.018,3.232c6.468,0.255,12.95,0.148,19.515,0.148c0-20.781,0-41.001,0-61.735
				c-1.61,0-3.035,0.001-4.461,0c-9.597-0.007-19.195,0.059-28.791-0.052c-4.764-0.055-7.412-2.579-7.363-6.574
				c0.049-4.068,2.717-6.456,7.458-6.492c7.197-0.055,14.396-0.018,21.594-0.019c3.815-0.001,7.629,0,11.532,0
				c0-11.682,0-22.814,0-34.321c-1.78,0-3.346,0-4.913,0c-32.257,0-64.514,0.011-96.772-0.007
				c-8.539-0.005-13.676-4.217-13.744-12.148c-0.202-23.724-0.193-47.452,0.007-71.177c0.064-7.563,5.029-11.883,12.61-11.894
				c15.595-0.023,31.191-0.008,46.786-0.008c1.342,0,2.684,0,4.916,0c-2.534-2.866-4.476-4.716-6.007-6.86
				c-3.947-5.528-9.273-7.301-15.909-7.225c-19.325,0.222-38.654,0.079-57.982,0.079c-1.572,0-3.143,0-4.985,0
				C259.107,127.07,259.107,199.515,259.107,272.654z M13.623,204.418c0,19.849-0.076,39.414,0.061,58.977
				c0.029,4.161,4.141,8.255,8.476,8.836c3.018,0.404,6.114,0.196,9.158,0.455c2.652,0.226,3.485-0.842,4.127-3.441
				c4.933-19.946,17.351-32.363,37.663-36.499c24.757-5.042,49.653,11.16,54.817,35.785c0.667,3.18,1.834,4.224,5.196,4.211
				c35.981-0.14,71.962-0.084,107.943-0.096c1.42,0,2.84-0.134,4.268-0.205c0-22.887,0-45.355,0-68.022
				C168.134,204.418,91.158,204.418,13.623,204.418z M395.296,149.603c0-6.97,0.256-13.748-0.137-20.488
				c-0.14-2.408-1.316-5.203-2.93-7.007c-11.374-12.716-23.028-25.18-34.474-37.833c-1.768-1.954-3.531-2.777-6.163-2.762
				c-18.129,0.101-36.26,0.048-54.389,0.064c-1.393,0.001-2.786,0.158-4.038,0.234c0,22.953,0,45.398,0,67.793
				C327.301,149.603,361.116,149.603,395.296,149.603z M115.971,279.244c-0.019-18.899-15.484-34.302-34.329-34.192
				c-18.789,0.11-34.087,15.131-33.991,34.062C47.749,298.363,61.8,313.283,81.7,313.36
				C101.459,313.437,115.525,298.539,115.971,279.244z M292.869,279.241c0.759,19.807,14.795,34.177,34.332,34.105
				c20.025-0.074,34.156-14.886,34.031-34.216c-0.129-19.944-14.779-33.585-33.957-34.012
				C308.471,244.699,292.9,260.4,292.869,279.241z"/>
			<path d="M95.218,279.121c0.066,7.334-5.969,13.554-13.28,13.686c-7.238,0.131-13.498-6.034-13.609-13.404
				c-0.11-7.31,5.996-13.536,13.335-13.595C89.005,265.75,95.152,271.787,95.218,279.121z"/>
			<path d="M327.336,265.808c7.224,0.089,13.559,6.568,13.367,13.669c-0.197,7.283-6.627,13.5-13.778,13.323
				c-7.307-0.181-13.457-6.525-13.32-13.741C313.742,271.799,320.043,265.718,327.336,265.808z"/>
		</g>
	</g>
</g>
<g>
</g>
<g>
</g>
<g>
</g>
<g>
</g>
<g>
</g>
<g>
</g>
<g>
</g>
<g>
</g>
<g>
</g>
<g>
</g>
<g>
</g>
<g>
</g>
<g>
</g>
<g>
</g>
<g>
</g>
</svg>
