<?xml version="1.0" encoding="iso-8859-1"?>
<!-- Generator: Adobe Illustrator 19.0.0, SVG Export Plug-In . SVG Version: 6.00 Build 0)  -->
<svg version="1.1" id="Capa_1" xmlns="http://www.w3.org/2000/svg" xmlns:xlink="http://www.w3.org/1999/xlink" x="0px" y="0px"
	 viewBox="0 0 512.001 512.001" style="enable-background:new 0 0 512.001 512.001;" xml:space="preserve" fill="#00fbff">
<g>
	<g>
		<path d="M255.5,246c-5.52,0-10,4.48-10,10c0,5.52,4.48,10,10,10s10-4.48,10-10C265.5,250.48,261.021,246,255.5,246z"/>
	</g>
</g>
<g>
	<g>
		<path d="M435.502,306c-13.036,0-24.152,8.361-28.28,20h-69.36l-37.889-18.944c-0.071-0.035-0.144-0.061-0.215-0.094
			c-0.191-0.09-0.384-0.177-0.581-0.255c-0.126-0.05-0.253-0.094-0.38-0.139c-0.176-0.062-0.353-0.12-0.534-0.172
			c-0.157-0.045-0.315-0.084-0.473-0.122c-0.151-0.035-0.302-0.07-0.456-0.098c-0.192-0.036-0.383-0.063-0.576-0.088
			c-0.127-0.016-0.254-0.032-0.383-0.043c-0.217-0.019-0.434-0.028-0.651-0.033c-0.075-0.002-0.149-0.011-0.224-0.011h-40
			c-27.57,0-50-22.43-50-50c0-13.351,5.201-25.91,14.637-35.355C229.591,211.201,242.149,206,255.5,206h39.972
			c0.012,0,0.024,0.002,0.036,0.002c0.145,0,0.291-0.018,0.437-0.025c0.206-0.009,0.414-0.014,0.617-0.035
			c0.143-0.015,0.285-0.044,0.427-0.065c0.221-0.033,0.441-0.067,0.656-0.114c0.127-0.028,0.252-0.064,0.378-0.097
			c0.237-0.062,0.471-0.129,0.7-0.207c0.111-0.038,0.22-0.079,0.33-0.121c0.253-0.096,0.499-0.203,0.742-0.318
			c0.058-0.028,0.118-0.047,0.176-0.075L337.86,186h69.36c4.128,11.639,15.243,20,28.28,20c16.542,0,30-13.458,30-30
			s-13.458-30-30-30c-13.036,0-24.152,8.361-28.28,20H335.5c-1.553,0-3.084,0.361-4.472,1.056L293.141,186H255.5
			c-18.689,0-36.268,7.279-49.505,20.502C192.779,219.732,185.5,237.311,185.5,256c0,38.598,31.402,70,70,70h37.64l37.889,18.944
			c1.388,0.694,2.919,1.056,4.472,1.056h71.72c4.128,11.639,15.243,20,28.28,20c16.542,0,30-13.458,30-30S452.044,306,435.502,306z
			 M435.5,166c5.514,0,10,4.486,10,10c0,5.514-4.486,10-10,10c-5.514,0-10-4.486-10-10C425.5,170.486,429.987,166,435.5,166z
			 M435.5,346c-5.514,0-10-4.486-10-10c0-5.514,4.486-10,10-10c5.514,0,10,4.486,10,10C445.5,341.514,441.015,346,435.5,346z"/>
	</g>
</g>
<g>
	<g>
		<path d="M255.5,126h20c5.522,0,10-4.477,10-10V10c0-5.523-4.478-10-10-10h-40c-4.057,0-7.711,2.451-9.251,6.204l-17.833,43.463
			c-22.106,5.071-43.04,13.652-62.381,25.567l-32.879-19.729c-3.936-2.362-8.972-1.742-12.216,1.503l-42.43,42.43
			c-3.245,3.245-3.865,8.281-1.503,12.216l19.729,32.879c-11.71,19.008-20.2,39.556-25.303,61.241l-43.078,9.458
			C3.769,216.24,0.5,220.303,0.5,225v60c0,4.695,3.267,8.758,7.853,9.767l43.51,9.567c5.223,21.514,13.708,41.792,25.288,60.436
			l-20.146,33.576c-2.361,3.935-1.741,8.971,1.504,12.216l42.43,42.43c3.244,3.244,8.28,3.864,12.215,1.504l34.11-20.464
			c18.901,11.471,39.254,19.774,60.655,24.744l18.264,46.857c1.497,3.84,5.196,6.368,9.317,6.368h40c5.522,0,10-4.478,10-10V396
			c0-5.523-4.478-10-10-10h-20c-71.682,0-130-58.318-130-130S183.818,126,255.5,126z M105.5,256c0,82.71,67.29,150,150,150h10v86
			h-23.165l-17.728-45.482c-1.233-3.163-3.987-5.484-7.313-6.165c-22.952-4.697-44.646-13.594-64.476-26.445
			c-3.204-2.076-7.31-2.145-10.583-0.183l-32.675,19.604L78.172,401.94l19.323-32.205c1.985-3.309,1.89-7.465-0.246-10.679
			c-13.134-19.767-22.304-41.699-27.254-65.188c-0.811-3.846-3.799-6.86-7.638-7.704L20.5,276.96v-43.917l41.475-9.105
			c3.867-0.85,6.87-3.901,7.656-7.783c4.781-23.603,13.937-45.797,27.212-65.968c2.113-3.21,2.199-7.347,0.222-10.643L78.172,108.06
			l31.387-31.387l31.485,18.893c3.296,1.979,7.434,1.892,10.643-0.222c20.17-13.275,42.365-22.431,65.968-27.212
			c3.273-0.663,5.999-2.916,7.266-6.005L242.206,20H265.5v86h-10C172.791,106,105.5,173.29,105.5,256z"/>
	</g>
</g>
<g>
	<g>
		<path d="M481.5,226c-13.036,0-24.152,8.361-28.28,20H295.5c-5.522,0-10,4.477-10,10s4.478,10,10,10h157.72
			c4.128,11.639,15.243,20,28.28,20c16.542,0,30-13.458,30-30S498.042,226,481.5,226z M481.5,266c-5.514,0-10-4.486-10-10
			c0-5.514,4.486-10,10-10c5.514,0,10,4.486,10,10C491.5,261.514,487.015,266,481.5,266z"/>
	</g>
</g>
<g>
	<g>
		<path d="M375.501,386c-7.032,0-13.777,2.523-19.085,6.888l-75.771-45.463c-1.554-0.933-3.332-1.425-5.145-1.425h-20
			c-49.626,0-90-40.374-90-90c0-49.626,40.374-90,90-90h20c1.812,0,3.591-0.493,5.145-1.425l75.772-45.463
			c5.309,4.367,12.053,6.888,19.084,6.888c16.542,0,30-13.458,30-30s-13.458-30-30-30s-30,13.458-30,30
			c0,2.017,0.205,4.019,0.603,5.977L272.731,146H255.5c-60.654,0-110,49.346-110,110s49.346,110,110,110h17.23l73.373,44.023
			c-0.398,1.958-0.603,3.96-0.603,5.977c0,16.542,13.458,30,30,30s30-13.458,30-30S392.043,386,375.501,386z M375.5,86
			c5.514,0,10,4.486,10,10s-4.486,10-10,10c-3.544,0-6.746-1.812-8.575-4.854v-0.001c-0.002-0.003-0.004-0.006-0.006-0.009
			c-0.928-1.545-1.419-3.322-1.419-5.136C365.5,90.486,369.987,86,375.5,86z M375.5,426c-5.514,0-10-4.486-10-10
			c0-1.815,0.491-3.591,1.425-5.145c0-0.001,0.001-0.002,0.001-0.002c1.823-3.039,5.027-4.853,8.574-4.853c5.514,0,10,4.486,10,10
			C385.5,421.514,381.015,426,375.5,426z"/>
	</g>
</g>
<g>
</g>
<g>
</g>
<g>
</g>
<g>
</g>
<g>
</g>
<g>
</g>
<g>
</g>
<g>
</g>
<g>
</g>
<g>
</g>
<g>
</g>
<g>
</g>
<g>
</g>
<g>
</g>
<g>
</g>
</svg>
