<?xml version="1.0" encoding="iso-8859-1"?>
<!-- Generator: Adobe Illustrator 19.0.0, SVG Export Plug-In . SVG Version: 6.00 Build 0)  -->
<svg version="1.1" id="Capa_1" xmlns="http://www.w3.org/2000/svg" xmlns:xlink="http://www.w3.org/1999/xlink" x="0px" y="0px"
	 viewBox="0 0 512 512" style="enable-background:new 0 0 512 512;" xml:space="preserve" fill="#00fbff">
<g>
	<g>
		<path d="M197.87,145.459c-1.86-1.86-4.44-2.93-7.07-2.93s-5.21,1.07-7.07,2.93c-1.859,1.87-2.93,4.44-2.93,7.08
			c0,2.63,1.07,5.2,2.93,7.07c1.86,1.86,4.44,2.92,7.07,2.92s5.21-1.06,7.07-2.92c1.859-1.87,2.93-4.44,2.93-7.07
			C200.8,149.899,199.73,147.329,197.87,145.459z"/>
	</g>
</g>
<g>
	<g>
		<path d="M502,273.875H370c-5.522,0-10,4.477-10,10v122h-20V90.243c0-5.523-4.478-10-10-10c-5.522,0-10,4.477-10,10v275.632h-20
			V251.723c0-2.861-1.205-5.443-3.135-7.266l-71.632-71.632c-3.905-3.905-10.235-3.905-14.143,0c-3.905,3.905-3.905,10.237,0,14.142
			L280,255.876v149.999h-13.638c-4.661-23.33-25.294-40.965-49.975-40.965c-24.681,0-45.313,17.635-49.974,40.965h-33.319
			c-4.661-23.33-25.293-40.965-49.974-40.965c-24.681,0-45.313,17.635-49.974,40.965H20V324.91h230c5.522,0,10-4.477,10-10v-46.608
			c0-2.652-1.054-5.196-2.929-7.071L83.927,88.087c-1.876-1.875-4.419-2.929-7.071-2.929H20v-20h69.282l63.752,63.752
			c3.906,3.905,10.236,3.905,14.143,0c3.905-3.905,3.905-10.237,0-14.142l-66.524-66.523c-1.82-1.902-4.384-3.086-7.225-3.086H10
			c-5.522,0-10,4.477-10,10v360.717c0,5.523,4.478,10,10,10h23.147c1.552,7.768,4.878,14.9,9.533,20.965H10c-5.522,0-10,4.477-10,10
			s4.478,10,10,10h73.121c24.68,0,45.313-17.635,49.974-40.965h33.319c1.552,7.768,4.878,14.9,9.533,20.965h-26.78
			c-5.522,0-10,4.477-10,10s4.478,10,10,10h67.221c24.68,0,45.314-17.635,49.975-40.965H290h30v23.123c0,5.523,4.478,10,10,10
			c5.522,0,10-4.477,10-10v-23.124h30h76.461H502c5.522,0,10-4.477,10-10v-132C512,278.352,507.522,273.875,502,273.875z M80,304.91
			H60v-49.394c0-5.514,4.486-10,10-10s10,4.486,10,10V304.91z M20,105.158h52.713L240,272.444v32.466h-15.122l-37.034-37.034
			l3.228-3.228c3.905-3.905,3.905-10.237,0-14.143c-3.906-3.905-10.236-3.905-14.143,0l-19.711,19.711
			c-3.905,3.905-3.905,10.237,0,14.143c1.953,1.953,4.512,2.929,7.071,2.929s5.118-0.976,7.071-2.929l2.341-2.341l22.892,22.892H100
			v-49.394c0-16.542-13.458-30-30-30s-30,13.458-30,30v49.394H20V105.158z M83.121,446.84c-17.074,0-30.965-13.891-30.965-30.965
			c0-17.074,13.891-30.965,30.965-30.965c17.074,0,30.965,13.891,30.965,30.965C114.086,432.949,100.195,446.84,83.121,446.84z
			 M216.388,446.84c-17.074,0-30.965-13.891-30.965-30.965c0-17.074,13.891-30.965,30.965-30.965s30.966,13.891,30.966,30.965
			C247.354,432.949,233.462,446.84,216.388,446.84z M320,405.875h-20v-20h20V405.875z M477.212,293.875L436,335.087l-41.212-41.212
			H477.212z M380,307.372l41.857,41.857L380,391.087V307.372z M446.461,405.875h-52.964L436,363.372l42.503,42.503H446.461z
			 M492,391.087l-41.857-41.858L492,307.372V391.087z"/>
	</g>
</g>
<g>
	<g>
		<path d="M337.069,48.089c-1.859-1.86-4.439-2.93-7.069-2.93s-5.21,1.07-7.07,2.93c-1.86,1.86-2.93,4.44-2.93,7.07
			s1.069,5.21,2.93,7.07c1.86,1.86,4.44,2.93,7.07,2.93s5.21-1.07,7.069-2.93c1.86-1.86,2.931-4.44,2.931-7.07
			C340,52.529,338.93,49.949,337.069,48.089z"/>
	</g>
</g>
<g>
	<g>
		<path d="M223.46,408.809c-1.86-1.87-4.44-2.93-7.07-2.93c-2.64,0-5.21,1.06-7.07,2.93c-1.869,1.86-2.93,4.43-2.93,7.06
			c0,2.64,1.061,5.22,2.93,7.08c1.86,1.86,4.44,2.93,7.07,2.93s5.21-1.07,7.07-2.93c1.859-1.86,2.93-4.44,2.93-7.08
			C226.39,413.239,225.32,410.669,223.46,408.809z"/>
	</g>
</g>
<g>
	<g>
		<path d="M90.189,408.809c-1.859-1.87-4.439-2.93-7.069-2.93s-5.21,1.06-7.07,2.93c-1.86,1.86-2.93,4.43-2.93,7.07
			c0,2.63,1.069,5.2,2.93,7.07c1.86,1.86,4.44,2.92,7.07,2.92s5.21-1.06,7.069-2.92c1.86-1.87,2.931-4.44,2.931-7.07
			C93.12,413.239,92.05,410.669,90.189,408.809z"/>
	</g>
</g>
<g>
</g>
<g>
</g>
<g>
</g>
<g>
</g>
<g>
</g>
<g>
</g>
<g>
</g>
<g>
</g>
<g>
</g>
<g>
</g>
<g>
</g>
<g>
</g>
<g>
</g>
<g>
</g>
<g>
</g>
</svg>
