<?xml version="1.0" encoding="iso-8859-1"?>
<!-- Generator: Adobe Illustrator 22.0.1, SVG Export Plug-In . SVG Version: 6.00 Build 0)  -->
<svg version="1.1" id="Layer_1" xmlns="http://www.w3.org/2000/svg" xmlns:xlink="http://www.w3.org/1999/xlink" x="0px" y="0px"
	 viewBox="0 0 370.8 371.76" style="enable-background:new 0 0 370.8 371.76;" xml:space="preserve" fill="#00fbff">
<g>
	<g>
		<defs>
			<rect id="SVGID_1_" width="370.8" height="371.76"/>
		</defs>
		<clipPath id="SVGID_2_">
			<use xlink:href="#SVGID_1_"  style="overflow:visible;"/>
		</clipPath>
		<path style="clip-path:url(#SVGID_2_);" d="M370.152,305.26c-1.175-8.899-6.316-16.575-14.093-21.055l-91.383-52.613
			c-11.192-6.442-25.391-4.567-34.524,4.566l-18,18c-4.789,4.789-12.367,5.215-17.625,0.984
			c-14.187-11.418-28.16-23.984-41.523-37.347c-13.363-13.363-25.93-27.332-37.348-41.524c-4.23-5.257-3.804-12.832,0.985-17.625
			l18-18c9.132-9.132,11.011-23.328,4.566-34.523L86.594,14.744C82.113,6.963,74.438,1.822,65.539,0.646
			c-8.902-1.179-17.648,1.789-23.996,8.137L14.422,35.904c-18.93,18.93-19.234,53.559-0.856,97.5
			c17.668,42.254,50.645,88.77,92.852,130.977c42.207,42.207,88.723,75.183,130.977,92.855
			c21.632,9.043,41.003,13.567,57.359,13.563c16.867,0,30.527-4.809,40.141-14.422l27.121-27.121
			C368.363,322.908,371.328,314.162,370.152,305.26L370.152,305.26z M258.688,241.99l91.382,52.617
			c4.52,2.602,7.504,7.059,8.188,12.227c0.574,4.34-0.555,8.609-3.11,12.055l-121.445-69.313l4.934-4.93
			C243.941,239.342,252.188,238.248,258.688,241.99L258.688,241.99z M63.965,12.545c5.168,0.683,9.625,3.668,12.226,8.187
			l52.614,91.379c3.746,6.5,2.656,14.746-2.649,20.051l-4.531,4.531L51.934,15.65c2.847-2.109,6.254-3.254,9.808-3.254
			C62.477,12.396,63.223,12.443,63.965,12.545L63.965,12.545z M326.406,347.892c-15.035,15.04-45.793,14.411-84.383-1.73
			c-40.847-17.082-85.992-49.137-127.121-90.266s-73.183-86.273-90.265-127.121c-16.141-38.59-16.77-69.343-1.731-84.386
			l20.133-20.133l69.797,121.226l-4.68,4.68c-9.133,9.133-9.929,23.59-1.851,33.633c11.687,14.523,24.547,28.82,38.215,42.484
			c13.668,13.668,27.96,26.528,42.484,38.215c10.043,8.078,24.5,7.281,33.633-1.852l4.269-4.269l121.614,69.406L326.406,347.892z
			 M326.406,347.892"/>
	</g>
</g>
</svg>
